…
Based on the data we create a polls\_data object.

``` r
pd <- polls_data(y = swedish_polls_curated[, 3:10],
                 house = swedish_polls_curated$Company,
                 publish_date = swedish_polls_curated$PublDate,
                 start_date = swedish_polls_curated$collectPeriodFrom,
                 end_date = swedish_polls_curated$collectPeriodTo,
                 n = swedish_polls_curated$n)
pd
```

    ## A polls_data object with 1660 polls from 28 houses 
    ## that range from 2000-01-03 to 2021-06-29.
    ##  # A tibble: 1,660 × 14
    ##    .poll_id     M     L     C    KD     S     V    MP    SD .house   .publish_date
    ##    <chr>    <dbl> <dbl> <dbl> <dbl> <dbl> <dbl> <dbl> <dbl> <fct>    <date>       
    ##  1 1        0.221 0.034 0.106 0.068 0.234 0.113 0.033 0.182 Demoskop 2021-06-29   
    ##  2 2        0.218 0.025 0.079 0.05  0.255 0.112 0.035 0.214 Novus    2021-06-29   
    ##  3 3        0.212 0.028 0.079 0.051 0.252 0.102 0.033 0.194 Sentio   2021-06-29   
    ##  4 4        0.22  0.02  0.1   0.06  0.24  0.12  0.03  0.19  Ipsos    2021-06-22   
    ##  5 5        0.224 0.023 0.099 0.051 0.258 0.096 0.035 0.202 Sifo     2021-06-18   
    ##  6 6        0.226 0.023 0.094 0.053 0.261 0.096 0.042 0.192 Novus    2021-06-11   
    ##  7 7        0.229 0.036 0.107 0.056 0.242 0.085 0.035 0.192 Demoskop 2021-06-05   
    ##  8 8        0.224 0.025 0.095 0.045 0.282 0.089 0.038 0.189 SCB      2021-06-02   
    ##  9 9        0.193 0.033 0.07  0.052 0.255 0.103 0.05  0.21  Sentio   2021-05-31   
    ## 10 10       0.22  0.03  0.09  0.05  0.26  0.1   0.04  0.2   Ipsos    2021-05-29   
    ## # … with 1,650 more rows, and 3 more variables: .start_date <date>,
    ## #   .end_date <date>, .n <int>
…
